## Autogenerated by Scribe. DO NOT MODIFY.

name: Stores
description: |-

  APIs for retrieving stores information.

  Stores represent physical locations where customers can place orders. Only active stores that receive online orders are returned.
endpoints:
  -
    custom: []
    httpMethods:
      - GET
    uri: api/v1/stores
    metadata:
      custom: []
      groupName: Stores
      groupDescription: |-

        APIs for retrieving stores information.

        Stores represent physical locations where customers can place orders. Only active stores that receive online orders are returned.
      subgroup: ''
      subgroupDescription: ''
      title: 'Get list of stores.'
      description: |-
        Retrieve a list of active stores that receive online orders. You can sort stores by name (default) or by nearest distance (requires coordinates).

        <aside class="notice">
        Only stores that are active and receive online orders are returned. Deleted or inactive stores are excluded.
        </aside>
      authenticated: false
      deprecated: false
    headers:
      Content-Type: application/json
      Accept: application/json
    urlParameters: []
    cleanUrlParameters: []
    queryParameters:
      latitude:
        custom: []
        name: latitude
        description: 'optional Latitude for distance calculation (required when sort=nearest). Must be between -90 and 90.'
        required: false
        example: 24.7136
        type: number
        enumValues: []
        exampleWasSpecified: true
        nullable: false
        deprecated: false
      longitude:
        custom: []
        name: longitude
        description: 'optional Longitude for distance calculation (required when sort=nearest). Must be between -180 and 180.'
        required: false
        example: 46.6753
        type: number
        enumValues: []
        exampleWasSpecified: true
        nullable: false
        deprecated: false
      sort:
        custom: []
        name: sort
        description: 'optional Sort order. Options: `nearest` (requires latitude and longitude), `name` (default).'
        required: false
        example: nearest
        type: string
        enumValues: []
        exampleWasSpecified: true
        nullable: false
        deprecated: false
      page:
        custom: []
        name: page
        description: 'optional Page number for pagination. Default: 1.'
        required: false
        example: 1
        type: integer
        enumValues: []
        exampleWasSpecified: true
        nullable: false
        deprecated: false
      per_page:
        custom: []
        name: per_page
        description: 'optional Number of items per page. Default: 15. Maximum: 100.'
        required: false
        example: 15
        type: integer
        enumValues: []
        exampleWasSpecified: true
        nullable: false
        deprecated: false
    cleanQueryParameters:
      latitude: 24.7136
      longitude: 46.6753
      sort: nearest
      page: 1
      per_page: 15
    bodyParameters:
      latitude:
        custom: []
        name: latitude
        description: 'Must be at least -90 characters. Must not be greater than 90 characters.'
        required: false
        example: 21
        type: number
        enumValues: []
        exampleWasSpecified: false
        nullable: true
        deprecated: false
      longitude:
        custom: []
        name: longitude
        description: 'Must be at least -180 characters. Must not be greater than 180 characters.'
        required: false
        example: 13
        type: number
        enumValues: []
        exampleWasSpecified: false
        nullable: true
        deprecated: false
      sort:
        custom: []
        name: sort
        description: ''
        required: false
        example: nearest
        type: string
        enumValues:
          - nearest
          - name
        exampleWasSpecified: false
        nullable: true
        deprecated: false
      page:
        custom: []
        name: page
        description: 'Must be at least 1 character.'
        required: false
        example: 56
        type: integer
        enumValues: []
        exampleWasSpecified: false
        nullable: true
        deprecated: false
      per_page:
        custom: []
        name: per_page
        description: 'Must be at least 1 character. Must not be greater than 100 characters.'
        required: false
        example: 5
        type: integer
        enumValues: []
        exampleWasSpecified: false
        nullable: true
        deprecated: false
    cleanBodyParameters:
      latitude: 21
      longitude: 13
      sort: nearest
      page: 56
      per_page: 5
    fileParameters: []
    responses:
      -
        custom: []
        status: 200
        content: |-
          {
            "success": true,
            "data": [
              {
                "id": 1,
                "name": "Downtown Store",
                "name_localized": {
                  "en": "Downtown Store",
                  "ar": "متجر وسط المدينة"
                },
                "address": "123 Main Street, Riyadh",
                "latitude": "24.71360000",
                "longitude": "46.67530000",
                "open_time": "09:00",
                "close_time": "22:00",
                "is_open_now": true,
                "distance": 2.5
              },
              {
                "id": 2,
                "name": "Mall Branch",
                "name_localized": {
                  "en": "Mall Branch",
                  "ar": "فرع المول"
                },
                "address": "456 Shopping Mall, Riyadh",
                "latitude": "24.72000000",
                "longitude": "46.68000000",
                "open_time": "10:00",
                "close_time": "23:00",
                "is_open_now": true,
                "distance": 5.2
              }
            ],
            "meta": {
              "current_page": 1,
              "from": 1,
              "last_page": 3,
              "per_page": 15,
              "to": 15,
              "total": 42
            },
            "links": {
              "first": "http://localhost/api/v1/stores?page=1",
              "last": "http://localhost/api/v1/stores?page=3",
              "prev": null,
              "next": "http://localhost/api/v1/stores?page=2"
            }
          }
        headers: []
        description: ''
      -
        custom: []
        status: 422
        content: |-
          {
            "success": false,
            "error": {
              "code": "MISSING_COORDINATES",
              "message": "Latitude and longitude are required for nearest sorting."
            }
          }
        headers: []
        description: ''
    responseFields:
      id:
        custom: []
        name: id
        description: 'The store ID.'
        required: false
        example: null
        type: integer
        enumValues: []
        exampleWasSpecified: false
        nullable: false
        deprecated: false
      name:
        custom: []
        name: name
        description: 'The store name.'
        required: false
        example: null
        type: string
        enumValues: []
        exampleWasSpecified: false
        nullable: false
        deprecated: false
      name_localized:
        custom: []
        name: name_localized
        description: 'Localized store names (e.g., {"en": "Store Name", "ar": "اسم المتجر"}).'
        required: false
        example: null
        type: object
        enumValues: []
        exampleWasSpecified: false
        nullable: false
        deprecated: false
      address:
        custom: []
        name: address
        description: 'The store address.'
        required: false
        example: null
        type: string
        enumValues: []
        exampleWasSpecified: false
        nullable: false
        deprecated: false
      latitude:
        custom: []
        name: latitude
        description: 'The store latitude coordinate.'
        required: false
        example: null
        type: string
        enumValues: []
        exampleWasSpecified: false
        nullable: false
        deprecated: false
      longitude:
        custom: []
        name: longitude
        description: 'The store longitude coordinate.'
        required: false
        example: null
        type: string
        enumValues: []
        exampleWasSpecified: false
        nullable: false
        deprecated: false
      open_time:
        custom: []
        name: open_time
        description: 'Store opening time (HH:mm format).'
        required: false
        example: null
        type: string
        enumValues: []
        exampleWasSpecified: false
        nullable: false
        deprecated: false
      close_time:
        custom: []
        name: close_time
        description: 'Store closing time (HH:mm format).'
        required: false
        example: null
        type: string
        enumValues: []
        exampleWasSpecified: false
        nullable: false
        deprecated: false
      is_open_now:
        custom: []
        name: is_open_now
        description: 'Whether the store is currently open.'
        required: false
        example: null
        type: boolean
        enumValues: []
        exampleWasSpecified: false
        nullable: false
        deprecated: false
      distance:
        custom: []
        name: distance
        description: 'Distance in kilometers (only included when coordinates are provided).'
        required: false
        example: null
        type: number
        enumValues: []
        exampleWasSpecified: false
        nullable: false
        deprecated: false
      meta:
        custom: []
        name: meta
        description: 'Pagination metadata.'
        required: false
        example: null
        type: object
        enumValues: []
        exampleWasSpecified: false
        nullable: false
        deprecated: false
      meta.current_page:
        custom: []
        name: meta.current_page
        description: 'Current page number.'
        required: false
        example: null
        type: integer
        enumValues: []
        exampleWasSpecified: false
        nullable: false
        deprecated: false
      meta.from:
        custom: []
        name: meta.from
        description: 'Starting record number for current page.'
        required: false
        example: null
        type: integer
        enumValues: []
        exampleWasSpecified: false
        nullable: false
        deprecated: false
      meta.last_page:
        custom: []
        name: meta.last_page
        description: 'Last page number.'
        required: false
        example: null
        type: integer
        enumValues: []
        exampleWasSpecified: false
        nullable: false
        deprecated: false
      meta.per_page:
        custom: []
        name: meta.per_page
        description: 'Number of items per page.'
        required: false
        example: null
        type: integer
        enumValues: []
        exampleWasSpecified: false
        nullable: false
        deprecated: false
      meta.to:
        custom: []
        name: meta.to
        description: 'Ending record number for current page.'
        required: false
        example: null
        type: integer
        enumValues: []
        exampleWasSpecified: false
        nullable: false
        deprecated: false
      meta.total:
        custom: []
        name: meta.total
        description: 'Total number of stores.'
        required: false
        example: null
        type: integer
        enumValues: []
        exampleWasSpecified: false
        nullable: false
        deprecated: false
      links:
        custom: []
        name: links
        description: 'Pagination links.'
        required: false
        example: null
        type: object
        enumValues: []
        exampleWasSpecified: false
        nullable: false
        deprecated: false
      links.first:
        custom: []
        name: links.first
        description: 'URL to first page.'
        required: false
        example: null
        type: string
        enumValues: []
        exampleWasSpecified: false
        nullable: false
        deprecated: false
      links.last:
        custom: []
        name: links.last
        description: 'URL to last page.'
        required: false
        example: null
        type: string
        enumValues: []
        exampleWasSpecified: false
        nullable: false
        deprecated: false
      links.prev:
        custom: []
        name: links.prev
        description: 'URL to previous page (null if on first page).'
        required: false
        example: null
        type: string|null
        enumValues: []
        exampleWasSpecified: false
        nullable: false
        deprecated: false
      links.next:
        custom: []
        name: links.next
        description: 'URL to next page (null if on last page).'
        required: false
        example: null
        type: string|null
        enumValues: []
        exampleWasSpecified: false
        nullable: false
        deprecated: false
    auth: []
    controller: null
    method: null
    route: null
  -
    custom: []
    httpMethods:
      - GET
    uri: 'api/v1/stores/{id}'
    metadata:
      custom: []
      groupName: Stores
      groupDescription: |-

        APIs for retrieving stores information.

        Stores represent physical locations where customers can place orders. Only active stores that receive online orders are returned.
      subgroup: ''
      subgroupDescription: ''
      title: 'Get a single store.'
      description: |-
        Retrieve detailed information about a specific store by its ID.

        <aside class="notice">
        Only active stores that receive online orders can be retrieved. If the store is inactive, deleted, or doesn't receive online orders, a 404 error will be returned.
        </aside>
      authenticated: false
      deprecated: false
    headers:
      Content-Type: application/json
      Accept: application/json
    urlParameters:
      id:
        custom: []
        name: id
        description: 'The store ID.'
        required: true
        example: 1
        type: integer
        enumValues: []
        exampleWasSpecified: true
        nullable: false
        deprecated: false
    cleanUrlParameters:
      id: 1
    queryParameters: []
    cleanQueryParameters: []
    bodyParameters: []
    cleanBodyParameters: []
    fileParameters: []
    responses:
      -
        custom: []
        status: 200
        content: |-
          {
            "success": true,
            "data": {
              "id": 1,
              "name": "Downtown Store",
              "name_localized": {
                "en": "Downtown Store",
                "ar": "متجر وسط المدينة"
              },
              "address": "123 Main Street, Riyadh",
              "latitude": "24.71360000",
              "longitude": "46.67530000",
              "open_time": "09:00",
              "close_time": "22:00",
              "is_open_now": true
            }
          }
        headers: []
        description: ''
      -
        custom: []
        status: 404
        content: |-
          {
            "success": false,
            "error": {
              "code": "STORE_NOT_FOUND",
              "message": "Store not found."
            }
          }
        headers: []
        description: ''
    responseFields:
      id:
        custom: []
        name: id
        description: 'The store ID.'
        required: false
        example: null
        type: integer
        enumValues: []
        exampleWasSpecified: false
        nullable: false
        deprecated: false
      name:
        custom: []
        name: name
        description: 'The store name.'
        required: false
        example: null
        type: string
        enumValues: []
        exampleWasSpecified: false
        nullable: false
        deprecated: false
      name_localized:
        custom: []
        name: name_localized
        description: 'Localized store names (e.g., {"en": "Store Name", "ar": "اسم المتجر"}).'
        required: false
        example: null
        type: object
        enumValues: []
        exampleWasSpecified: false
        nullable: false
        deprecated: false
      address:
        custom: []
        name: address
        description: 'The store address.'
        required: false
        example: null
        type: string
        enumValues: []
        exampleWasSpecified: false
        nullable: false
        deprecated: false
      latitude:
        custom: []
        name: latitude
        description: 'The store latitude coordinate.'
        required: false
        example: null
        type: string
        enumValues: []
        exampleWasSpecified: false
        nullable: false
        deprecated: false
      longitude:
        custom: []
        name: longitude
        description: 'The store longitude coordinate.'
        required: false
        example: null
        type: string
        enumValues: []
        exampleWasSpecified: false
        nullable: false
        deprecated: false
      open_time:
        custom: []
        name: open_time
        description: 'Store opening time (HH:mm format).'
        required: false
        example: null
        type: string
        enumValues: []
        exampleWasSpecified: false
        nullable: false
        deprecated: false
      close_time:
        custom: []
        name: close_time
        description: 'Store closing time (HH:mm format).'
        required: false
        example: null
        type: string
        enumValues: []
        exampleWasSpecified: false
        nullable: false
        deprecated: false
      is_open_now:
        custom: []
        name: is_open_now
        description: 'Whether the store is currently open.'
        required: false
        example: null
        type: boolean
        enumValues: []
        exampleWasSpecified: false
        nullable: false
        deprecated: false
    auth: []
    controller: null
    method: null
    route: null
