## Autogenerated by Scribe. DO NOT MODIFY.

name: 'Catalog APIs'
description: ''
endpoints:
  -
    custom: []
    httpMethods:
      - GET
    uri: api/v1/catalog/home
    metadata:
      custom: []
      groupName: 'Catalog APIs'
      groupDescription: ''
      subgroup: ''
      subgroupDescription: ''
      title: 'Get home page data'
      description: 'Returns active categories and featured products for the home page.'
      authenticated: false
      deprecated: false
    headers:
      Content-Type: application/json
      Accept: application/json
    urlParameters: []
    cleanUrlParameters: []
    queryParameters: []
    cleanQueryParameters: []
    bodyParameters: []
    cleanBodyParameters: []
    fileParameters: []
    responses:
      -
        custom: []
        status: 200
        content: |-
          {
            "success": true,
            "data": {
              "categories": [
                {
                  "id": 1,
                  "name": "Category Name",
                  "image": "https://example.com/image.jpg"
                }
              ],
              "featured_products": [
                {
                  "id": 1,
                  "name": "Product Name",
                  "price": 25.50
                }
              ]
            }
          }
        headers: []
        description: ''
    responseFields: []
    auth: []
    controller: null
    method: null
    route: null
  -
    custom: []
    httpMethods:
      - GET
    uri: api/v1/catalog/categories
    metadata:
      custom: []
      groupName: 'Catalog APIs'
      groupDescription: ''
      subgroup: ''
      subgroupDescription: ''
      title: 'Get list of categories'
      description: ''
      authenticated: false
      deprecated: false
    headers:
      Content-Type: application/json
      Accept: application/json
    urlParameters: []
    cleanUrlParameters: []
    queryParameters:
      source:
        custom: []
        name: source
        description: 'optional Filter by source (all, foodics, manual). Default: "all".'
        required: false
        example: '"foodics"'
        type: string
        enumValues: []
        exampleWasSpecified: true
        nullable: false
        deprecated: false
      is_active:
        custom: []
        name: is_active
        description: 'optional Filter by active status (0, 1). Default: "1".'
        required: false
        example: '"1"'
        type: string
        enumValues: []
        exampleWasSpecified: true
        nullable: false
        deprecated: false
      q:
        custom: []
        name: q
        description: 'optional Search query.'
        required: false
        example: '"drinks"'
        type: string
        enumValues: []
        exampleWasSpecified: true
        nullable: false
        deprecated: false
      sort_by:
        custom: []
        name: sort_by
        description: 'optional Sort field. Default: "created_at".'
        required: false
        example: '"name"'
        type: string
        enumValues: []
        exampleWasSpecified: true
        nullable: false
        deprecated: false
      sort_order:
        custom: []
        name: sort_order
        description: 'optional Sort order (asc, desc). Default: "desc".'
        required: false
        example: '"asc"'
        type: string
        enumValues: []
        exampleWasSpecified: true
        nullable: false
        deprecated: false
      per_page:
        custom: []
        name: per_page
        description: 'optional Items per page (max 100). Default: 15.'
        required: false
        example: 20
        type: integer
        enumValues: []
        exampleWasSpecified: true
        nullable: false
        deprecated: false
    cleanQueryParameters:
      source: '"foodics"'
      is_active: '"1"'
      q: '"drinks"'
      sort_by: '"name"'
      sort_order: '"asc"'
      per_page: 20
    bodyParameters: []
    cleanBodyParameters: []
    fileParameters: []
    responses:
      -
        custom: []
        status: 200
        content: |-
          {
            "success": true,
            "data": [
              {
                "id": 1,
                "name": "Beverages",
                "image": "https://example.com/image.jpg"
              }
            ],
            "pagination": {
              "current_page": 1,
              "per_page": 15,
              "total": 50,
              "last_page": 4
            }
          }
        headers: []
        description: ''
    responseFields: []
    auth: []
    controller: null
    method: null
    route: null
  -
    custom: []
    httpMethods:
      - GET
    uri: api/v1/catalog/products
    metadata:
      custom: []
      groupName: 'Catalog APIs'
      groupDescription: ''
      subgroup: ''
      subgroupDescription: ''
      title: 'Get list of products'
      description: ''
      authenticated: false
      deprecated: false
    headers:
      Content-Type: application/json
      Accept: application/json
    urlParameters: []
    cleanUrlParameters: []
    queryParameters:
      store_id:
        custom: []
        name: store_id
        description: 'optional Filter by store ID.'
        required: false
        example: 1
        type: integer
        enumValues: []
        exampleWasSpecified: true
        nullable: false
        deprecated: false
      category_id:
        custom: []
        name: category_id
        description: 'optional Filter by category ID.'
        required: false
        example: 2
        type: integer
        enumValues: []
        exampleWasSpecified: true
        nullable: false
        deprecated: false
      q:
        custom: []
        name: q
        description: 'optional Search query.'
        required: false
        example: '"pizza"'
        type: string
        enumValues: []
        exampleWasSpecified: true
        nullable: false
        deprecated: false
      source:
        custom: []
        name: source
        description: 'optional Filter by source (all, foodics, manual). Default: "all".'
        required: false
        example: '"foodics"'
        type: string
        enumValues: []
        exampleWasSpecified: true
        nullable: false
        deprecated: false
      is_active:
        custom: []
        name: is_active
        description: 'optional Filter by active status (0, 1). Default: "1".'
        required: false
        example: '"1"'
        type: string
        enumValues: []
        exampleWasSpecified: true
        nullable: false
        deprecated: false
      price_min:
        custom: []
        name: price_min
        description: 'optional Minimum price filter.'
        required: false
        example: 10.5
        type: number
        enumValues: []
        exampleWasSpecified: true
        nullable: false
        deprecated: false
      price_max:
        custom: []
        name: price_max
        description: 'optional Maximum price filter.'
        required: false
        example: 100.0
        type: number
        enumValues: []
        exampleWasSpecified: true
        nullable: false
        deprecated: false
      sort_by:
        custom: []
        name: sort_by
        description: 'optional Sort field. Default: "created_at".'
        required: false
        example: '"price"'
        type: string
        enumValues: []
        exampleWasSpecified: true
        nullable: false
        deprecated: false
      sort_order:
        custom: []
        name: sort_order
        description: 'optional Sort order (asc, desc). Default: "desc".'
        required: false
        example: '"asc"'
        type: string
        enumValues: []
        exampleWasSpecified: true
        nullable: false
        deprecated: false
      per_page:
        custom: []
        name: per_page
        description: 'optional Items per page (max 100). Default: 15.'
        required: false
        example: 20
        type: integer
        enumValues: []
        exampleWasSpecified: true
        nullable: false
        deprecated: false
    cleanQueryParameters:
      store_id: 1
      category_id: 2
      q: '"pizza"'
      source: '"foodics"'
      is_active: '"1"'
      price_min: 10.5
      price_max: 100.0
      sort_by: '"price"'
      sort_order: '"asc"'
      per_page: 20
    bodyParameters: []
    cleanBodyParameters: []
    fileParameters: []
    responses:
      -
        custom: []
        status: 200
        content: |-
          {
            "success": true,
            "data": [
              {
                "id": 1,
                "name": "Product Name",
                "price": 25.50
              }
            ],
            "pagination": {
              "current_page": 1,
              "per_page": 15,
              "total": 100,
              "last_page": 7
            }
          }
        headers: []
        description: ''
    responseFields: []
    auth: []
    controller: null
    method: null
    route: null
  -
    custom: []
    httpMethods:
      - GET
    uri: 'api/v1/catalog/products/{id}'
    metadata:
      custom: []
      groupName: 'Catalog APIs'
      groupDescription: ''
      subgroup: ''
      subgroupDescription: ''
      title: 'Get single product by ID'
      description: ''
      authenticated: false
      deprecated: false
    headers:
      Content-Type: application/json
      Accept: application/json
    urlParameters:
      id:
        custom: []
        name: id
        description: 'The ID of the product.'
        required: true
        example: '1'
        type: string
        enumValues: []
        exampleWasSpecified: true
        nullable: false
        deprecated: false
    cleanUrlParameters:
      id: '1'
    queryParameters: []
    cleanQueryParameters: []
    bodyParameters: []
    cleanBodyParameters: []
    fileParameters: []
    responses:
      -
        custom: []
        status: 200
        content: |-
          {
            "success": true,
            "data": {
              "id": 1,
              "name": "Product Name",
              "price": 25.50,
              "description": "Product description"
            }
          }
        headers: []
        description: ''
      -
        custom: []
        status: 404
        content: |-
          {
            "success": false,
            "error": "PRODUCT_NOT_FOUND",
            "message": "product_not_found"
          }
        headers: []
        description: ''
    responseFields: []
    auth: []
    controller: null
    method: null
    route: null
  -
    custom: []
    httpMethods:
      - GET
    uri: api/v1/home
    metadata:
      custom: []
      groupName: 'Catalog APIs'
      groupDescription: ''
      subgroup: ''
      subgroupDescription: ''
      title: 'Get home page data'
      description: 'Returns active categories and featured products for the home page.'
      authenticated: false
      deprecated: false
    headers:
      Content-Type: application/json
      Accept: application/json
    urlParameters: []
    cleanUrlParameters: []
    queryParameters: []
    cleanQueryParameters: []
    bodyParameters: []
    cleanBodyParameters: []
    fileParameters: []
    responses:
      -
        custom: []
        status: 200
        content: |-
          {
            "success": true,
            "data": {
              "categories": [
                {
                  "id": 1,
                  "name": "Category Name",
                  "image": "https://example.com/image.jpg"
                }
              ],
              "featured_products": [
                {
                  "id": 1,
                  "name": "Product Name",
                  "price": 25.50
                }
              ]
            }
          }
        headers: []
        description: ''
    responseFields: []
    auth: []
    controller: null
    method: null
    route: null
  -
    custom: []
    httpMethods:
      - GET
    uri: api/v1/categories
    metadata:
      custom: []
      groupName: 'Catalog APIs'
      groupDescription: ''
      subgroup: ''
      subgroupDescription: ''
      title: 'Get list of categories'
      description: ''
      authenticated: false
      deprecated: false
    headers:
      Content-Type: application/json
      Accept: application/json
    urlParameters: []
    cleanUrlParameters: []
    queryParameters:
      source:
        custom: []
        name: source
        description: 'optional Filter by source (all, foodics, manual). Default: "all".'
        required: false
        example: '"foodics"'
        type: string
        enumValues: []
        exampleWasSpecified: true
        nullable: false
        deprecated: false
      is_active:
        custom: []
        name: is_active
        description: 'optional Filter by active status (0, 1). Default: "1".'
        required: false
        example: '"1"'
        type: string
        enumValues: []
        exampleWasSpecified: true
        nullable: false
        deprecated: false
      q:
        custom: []
        name: q
        description: 'optional Search query.'
        required: false
        example: '"drinks"'
        type: string
        enumValues: []
        exampleWasSpecified: true
        nullable: false
        deprecated: false
      sort_by:
        custom: []
        name: sort_by
        description: 'optional Sort field. Default: "created_at".'
        required: false
        example: '"name"'
        type: string
        enumValues: []
        exampleWasSpecified: true
        nullable: false
        deprecated: false
      sort_order:
        custom: []
        name: sort_order
        description: 'optional Sort order (asc, desc). Default: "desc".'
        required: false
        example: '"asc"'
        type: string
        enumValues: []
        exampleWasSpecified: true
        nullable: false
        deprecated: false
      per_page:
        custom: []
        name: per_page
        description: 'optional Items per page (max 100). Default: 15.'
        required: false
        example: 20
        type: integer
        enumValues: []
        exampleWasSpecified: true
        nullable: false
        deprecated: false
    cleanQueryParameters:
      source: '"foodics"'
      is_active: '"1"'
      q: '"drinks"'
      sort_by: '"name"'
      sort_order: '"asc"'
      per_page: 20
    bodyParameters: []
    cleanBodyParameters: []
    fileParameters: []
    responses:
      -
        custom: []
        status: 200
        content: |-
          {
            "success": true,
            "data": [
              {
                "id": 1,
                "name": "Beverages",
                "image": "https://example.com/image.jpg"
              }
            ],
            "pagination": {
              "current_page": 1,
              "per_page": 15,
              "total": 50,
              "last_page": 4
            }
          }
        headers: []
        description: ''
    responseFields: []
    auth: []
    controller: null
    method: null
    route: null
  -
    custom: []
    httpMethods:
      - GET
    uri: api/v1/products
    metadata:
      custom: []
      groupName: 'Catalog APIs'
      groupDescription: ''
      subgroup: ''
      subgroupDescription: ''
      title: 'Get list of products'
      description: ''
      authenticated: false
      deprecated: false
    headers:
      Content-Type: application/json
      Accept: application/json
    urlParameters: []
    cleanUrlParameters: []
    queryParameters:
      store_id:
        custom: []
        name: store_id
        description: 'optional Filter by store ID.'
        required: false
        example: 1
        type: integer
        enumValues: []
        exampleWasSpecified: true
        nullable: false
        deprecated: false
      category_id:
        custom: []
        name: category_id
        description: 'optional Filter by category ID.'
        required: false
        example: 2
        type: integer
        enumValues: []
        exampleWasSpecified: true
        nullable: false
        deprecated: false
      q:
        custom: []
        name: q
        description: 'optional Search query.'
        required: false
        example: '"pizza"'
        type: string
        enumValues: []
        exampleWasSpecified: true
        nullable: false
        deprecated: false
      source:
        custom: []
        name: source
        description: 'optional Filter by source (all, foodics, manual). Default: "all".'
        required: false
        example: '"foodics"'
        type: string
        enumValues: []
        exampleWasSpecified: true
        nullable: false
        deprecated: false
      is_active:
        custom: []
        name: is_active
        description: 'optional Filter by active status (0, 1). Default: "1".'
        required: false
        example: '"1"'
        type: string
        enumValues: []
        exampleWasSpecified: true
        nullable: false
        deprecated: false
      price_min:
        custom: []
        name: price_min
        description: 'optional Minimum price filter.'
        required: false
        example: 10.5
        type: number
        enumValues: []
        exampleWasSpecified: true
        nullable: false
        deprecated: false
      price_max:
        custom: []
        name: price_max
        description: 'optional Maximum price filter.'
        required: false
        example: 100.0
        type: number
        enumValues: []
        exampleWasSpecified: true
        nullable: false
        deprecated: false
      sort_by:
        custom: []
        name: sort_by
        description: 'optional Sort field. Default: "created_at".'
        required: false
        example: '"price"'
        type: string
        enumValues: []
        exampleWasSpecified: true
        nullable: false
        deprecated: false
      sort_order:
        custom: []
        name: sort_order
        description: 'optional Sort order (asc, desc). Default: "desc".'
        required: false
        example: '"asc"'
        type: string
        enumValues: []
        exampleWasSpecified: true
        nullable: false
        deprecated: false
      per_page:
        custom: []
        name: per_page
        description: 'optional Items per page (max 100). Default: 15.'
        required: false
        example: 20
        type: integer
        enumValues: []
        exampleWasSpecified: true
        nullable: false
        deprecated: false
    cleanQueryParameters:
      store_id: 1
      category_id: 2
      q: '"pizza"'
      source: '"foodics"'
      is_active: '"1"'
      price_min: 10.5
      price_max: 100.0
      sort_by: '"price"'
      sort_order: '"asc"'
      per_page: 20
    bodyParameters: []
    cleanBodyParameters: []
    fileParameters: []
    responses:
      -
        custom: []
        status: 200
        content: |-
          {
            "success": true,
            "data": [
              {
                "id": 1,
                "name": "Product Name",
                "price": 25.50
              }
            ],
            "pagination": {
              "current_page": 1,
              "per_page": 15,
              "total": 100,
              "last_page": 7
            }
          }
        headers: []
        description: ''
    responseFields: []
    auth: []
    controller: null
    method: null
    route: null
  -
    custom: []
    httpMethods:
      - GET
    uri: 'api/v1/products/{id}'
    metadata:
      custom: []
      groupName: 'Catalog APIs'
      groupDescription: ''
      subgroup: ''
      subgroupDescription: ''
      title: 'Get single product by ID'
      description: ''
      authenticated: false
      deprecated: false
    headers:
      Content-Type: application/json
      Accept: application/json
    urlParameters:
      id:
        custom: []
        name: id
        description: 'The ID of the product.'
        required: true
        example: '1'
        type: string
        enumValues: []
        exampleWasSpecified: true
        nullable: false
        deprecated: false
    cleanUrlParameters:
      id: '1'
    queryParameters: []
    cleanQueryParameters: []
    bodyParameters: []
    cleanBodyParameters: []
    fileParameters: []
    responses:
      -
        custom: []
        status: 200
        content: |-
          {
            "success": true,
            "data": {
              "id": 1,
              "name": "Product Name",
              "price": 25.50,
              "description": "Product description"
            }
          }
        headers: []
        description: ''
      -
        custom: []
        status: 404
        content: |-
          {
            "success": false,
            "error": "PRODUCT_NOT_FOUND",
            "message": "product_not_found"
          }
        headers: []
        description: ''
    responseFields: []
    auth: []
    controller: null
    method: null
    route: null
