## Autogenerated by Scribe. DO NOT MODIFY.

name: 'Orders APIs'
description: ''
endpoints:
  -
    custom: []
    httpMethods:
      - POST
    uri: api/v1/orders/checkout
    metadata:
      custom: []
      groupName: 'Orders APIs'
      groupDescription: ''
      subgroup: ''
      subgroupDescription: ''
      title: 'Checkout cart and create order'
      description: ''
      authenticated: true
      deprecated: false
    headers:
      Content-Type: application/json
      Accept: application/json
    urlParameters: []
    cleanUrlParameters: []
    queryParameters: []
    cleanQueryParameters: []
    bodyParameters:
      payment_method:
        custom: []
        name: payment_method
        description: 'Payment method. Options: `cash`, `card`, `online`.'
        required: true
        example: cash
        type: string
        enumValues: []
        exampleWasSpecified: true
        nullable: false
        deprecated: false
    cleanBodyParameters:
      payment_method: cash
    fileParameters: []
    responses:
      -
        custom: []
        status: 201
        content: |-
          {
            "success": true,
            "message": "order_created",
            "data": {
              "order_id": 123,
              "pickup_code": "ABC123",
              "total": 75.50
            }
          }
        headers: []
        description: ''
      -
        custom: []
        status: 400
        content: |-
          {
            "success": false,
            "error": "CART_EMPTY",
            "message": "cart_empty"
          }
        headers: []
        description: ''
      -
        custom: []
        status: 401
        content: |-
          {
            "success": false,
            "error": "UNAUTHORIZED",
            "message": "unauthorized"
          }
        headers: []
        description: ''
    responseFields: []
    auth: []
    controller: null
    method: null
    route: null
  -
    custom: []
    httpMethods:
      - GET
    uri: api/v1/orders
    metadata:
      custom: []
      groupName: 'Orders APIs'
      groupDescription: ''
      subgroup: ''
      subgroupDescription: ''
      title: 'Get list of customer orders'
      description: ''
      authenticated: true
      deprecated: false
    headers:
      Content-Type: application/json
      Accept: application/json
    urlParameters: []
    cleanUrlParameters: []
    queryParameters:
      status:
        custom: []
        name: status
        description: 'optional Filter by status (active, completed, cancelled). Default: "active".'
        required: false
        example: '"completed"'
        type: string
        enumValues: []
        exampleWasSpecified: true
        nullable: false
        deprecated: false
      payment_method:
        custom: []
        name: payment_method
        description: 'optional Filter by payment method.'
        required: false
        example: '"cash"'
        type: string
        enumValues: []
        exampleWasSpecified: true
        nullable: false
        deprecated: false
      store_id:
        custom: []
        name: store_id
        description: 'optional Filter by store ID.'
        required: false
        example: 1
        type: integer
        enumValues: []
        exampleWasSpecified: true
        nullable: false
        deprecated: false
      date_from:
        custom: []
        name: date_from
        description: 'date optional Filter orders from date (Y-m-d).'
        required: false
        example: '"2025-01-01"'
        type: string
        enumValues: []
        exampleWasSpecified: true
        nullable: false
        deprecated: false
      date_to:
        custom: []
        name: date_to
        description: 'date optional Filter orders to date (Y-m-d).'
        required: false
        example: '"2025-12-31"'
        type: string
        enumValues: []
        exampleWasSpecified: true
        nullable: false
        deprecated: false
      total_min:
        custom: []
        name: total_min
        description: 'optional Minimum order total.'
        required: false
        example: 10.5
        type: number
        enumValues: []
        exampleWasSpecified: true
        nullable: false
        deprecated: false
      total_max:
        custom: []
        name: total_max
        description: 'optional Maximum order total.'
        required: false
        example: 100.0
        type: number
        enumValues: []
        exampleWasSpecified: true
        nullable: false
        deprecated: false
      sort_by:
        custom: []
        name: sort_by
        description: 'optional Sort field. Default: "created_at".'
        required: false
        example: '"total"'
        type: string
        enumValues: []
        exampleWasSpecified: true
        nullable: false
        deprecated: false
      sort_order:
        custom: []
        name: sort_order
        description: 'optional Sort order (asc, desc). Default: "desc".'
        required: false
        example: '"asc"'
        type: string
        enumValues: []
        exampleWasSpecified: true
        nullable: false
        deprecated: false
      per_page:
        custom: []
        name: per_page
        description: 'optional Items per page (max 100). Default: 15.'
        required: false
        example: 20
        type: integer
        enumValues: []
        exampleWasSpecified: true
        nullable: false
        deprecated: false
    cleanQueryParameters:
      status: '"completed"'
      payment_method: '"cash"'
      store_id: 1
      date_from: '"2025-01-01"'
      date_to: '"2025-12-31"'
      total_min: 10.5
      total_max: 100.0
      sort_by: '"total"'
      sort_order: '"asc"'
      per_page: 20
    bodyParameters: []
    cleanBodyParameters: []
    fileParameters: []
    responses:
      -
        custom: []
        status: 200
        content: |-
          {
            "success": true,
            "data": [
              {
                "id": 123,
                "pickup_code": "ABC123",
                "status": "completed",
                "total": 75.50
              }
            ],
            "pagination": {
              "current_page": 1,
              "per_page": 15,
              "total": 50,
              "last_page": 4
            }
          }
        headers: []
        description: ''
    responseFields: []
    auth: []
    controller: null
    method: null
    route: null
  -
    custom: []
    httpMethods:
      - GET
    uri: 'api/v1/orders/{id}'
    metadata:
      custom: []
      groupName: 'Orders APIs'
      groupDescription: ''
      subgroup: ''
      subgroupDescription: ''
      title: 'Get single order by ID'
      description: ''
      authenticated: true
      deprecated: false
    headers:
      Content-Type: application/json
      Accept: application/json
    urlParameters:
      id:
        custom: []
        name: id
        description: 'The order ID.'
        required: true
        example: '123'
        type: string
        enumValues: []
        exampleWasSpecified: true
        nullable: false
        deprecated: false
    cleanUrlParameters:
      id: '123'
    queryParameters: []
    cleanQueryParameters: []
    bodyParameters: []
    cleanBodyParameters: []
    fileParameters: []
    responses:
      -
        custom: []
        status: 200
        content: |-
          {
            "success": true,
            "data": {
              "id": 123,
              "pickup_code": "ABC123",
              "status": "completed",
              "total": 75.50,
              "items": []
            }
          }
        headers: []
        description: ''
      -
        custom: []
        status: 404
        content: |-
          {
            "success": false,
            "error": "ORDER_NOT_FOUND",
            "message": "order_not_found"
          }
        headers: []
        description: ''
    responseFields: []
    auth: []
    controller: null
    method: null
    route: null
  -
    custom: []
    httpMethods:
      - GET
    uri: 'api/v1/orders/{id}/tracking'
    metadata:
      custom: []
      groupName: 'Orders APIs'
      groupDescription: ''
      subgroup: ''
      subgroupDescription: ''
      title: 'Get order tracking information'
      description: ''
      authenticated: true
      deprecated: false
    headers:
      Content-Type: application/json
      Accept: application/json
    urlParameters:
      id:
        custom: []
        name: id
        description: 'The order ID.'
        required: true
        example: '123'
        type: string
        enumValues: []
        exampleWasSpecified: true
        nullable: false
        deprecated: false
    cleanUrlParameters:
      id: '123'
    queryParameters: []
    cleanQueryParameters: []
    bodyParameters: []
    cleanBodyParameters: []
    fileParameters: []
    responses:
      -
        custom: []
        status: 200
        content: |-
          {
            "success": true,
            "data": {
              "status": "completed",
              "pickup_code": "ABC123",
              "status_history": [
                {
                  "status": "received",
                  "at": "2025-12-21T10:00:00Z"
                }
              ]
            }
          }
        headers: []
        description: ''
      -
        custom: []
        status: 404
        content: |-
          {
            "success": false,
            "error": "ORDER_NOT_FOUND",
            "message": "order_not_found"
          }
        headers: []
        description: ''
    responseFields: []
    auth: []
    controller: null
    method: null
    route: null
  -
    custom: []
    httpMethods:
      - POST
    uri: 'api/v1/orders/{id}/reorder'
    metadata:
      custom: []
      groupName: 'Orders APIs'
      groupDescription: ''
      subgroup: ''
      subgroupDescription: ''
      title: 'Reorder an existing order.'
      description: 'Create a new cart with the same items from a previous order, allowing the customer to reorder easily.'
      authenticated: false
      deprecated: false
    headers:
      Content-Type: application/json
      Accept: application/json
    urlParameters:
      id:
        custom: []
        name: id
        description: 'The order ID to reorder.'
        required: true
        example: 123
        type: integer
        enumValues: []
        exampleWasSpecified: true
        nullable: false
        deprecated: false
    cleanUrlParameters:
      id: 123
    queryParameters: []
    cleanQueryParameters: []
    bodyParameters: []
    cleanBodyParameters: []
    fileParameters: []
    responses:
      -
        custom: []
        status: 201
        content: |-
          {
            "success": true,
            "message": "cart_recreated",
            "data": {
              "cart_id": 456,
              "store_id": 1,
              "items_count": 3,
              "subtotal": 75.00,
              "total": 75.00
            }
          }
        headers: []
        description: ''
      -
        custom: []
        status: 404
        content: |-
          {
            "success": false,
            "error": {
              "code": "ORDER_NOT_FOUND",
              "message": "Order not found."
            }
          }
        headers: []
        description: ''
    responseFields: []
    auth: []
    controller: null
    method: null
    route: null
